<?xml version="1.0" encoding="UTF-8" ?>
<OAI-PMH
        xmlns="http://www.openarchives.org/OAI/2.0/"
        xmlns:xsi="http://www.w3.org/2001/XMLSchema-instance"
        xsi:schemaLocation="http://www.openarchives.org/OAI/2.0/ http://www.openarchives.org/OAI/2.0/OAI-PMH.xsd">
    <responseDate>2017-03-30T18:51:05Z</responseDate>
    <request verb= "ListIdentifiers" metadataPrefix="oai_dc">http://pid.geoscience.gov.au/oai</request>
    <ListIdentifiers>
        <header>
            <identifier>AU1</identifier>
            <datestamp>2017-03-09T16:14:52Z</datestamp>
        </header>
        <header>
            <identifier>AU10</identifier>
            <datestamp>2017-03-09T16:14:53Z</datestamp>
        </header>
        <header>
            <identifier>AU100</identifier>
            <datestamp>2017-03-09T16:14:52Z</datestamp>
        </header>
        <header>
            <identifier>AU1000</identifier>
            <datestamp>2017-03-09T16:14:50Z</datestamp>
        </header>
        <header>
            <identifier>AU10000</identifier>
            <datestamp>2016-10-25T16:42:57Z</datestamp>
        </header>
        <header>
            <identifier>AU100000</identifier>
            <datestamp>2016-10-25T16:42:51Z</datestamp>
        </header>
        <header>
            <identifier>AU1000000</identifier>
            <datestamp>2017-03-21T14:46:50Z</datestamp>
        </header>
        <header>
            <identifier>AU1000001</identifier>
            <datestamp>2017-03-21T14:46:50Z</datestamp>
        </header>
        <header>
            <identifier>AU1000002</identifier>
            <datestamp>2017-03-21T14:46:50Z</datestamp>
        </header>
        <header>
            <identifier>AU1000003</identifier>
            <datestamp>2017-03-21T14:46:50Z</datestamp>
        </header>
        <resumptionToken expirationDate="2017-03-30T19:51:06Z" completeListSize="1966542" cursor="0">
        2011-06-01T00:00:00Z,9999-12-31T23:59:59Z,10,oai_dc</resumptionToken>
    </ListIdentifiers>
</OAI-PMH>